Retrieving trophic information from SLIME: a how-to. • SLIMER
…
Retrieve Interactions Information

Use the get.interactions function to retrieve information about
interactions based on Taxonomy ID or scientific name:

# Example for retrieving interactions information based on Taxonomy ID
interactions_info <- get.interactions(taxid = c("GBIF:2130185", "NCBI:55786"), endpoint = endpoint_url)

# Display the data frame
print(interactions_info)

## # A tibble: 225 × 11
##    queryName queryId  matchName matchId interactionId interactionName resourceId
##    <lgl>     <chr>    <chr>     <list>  <chr>         <chr>           <chr>     
##  1 NA        GBIF:21… Tetranyc… <chr>   RO:0002444    parasite of     GBIF:2874…
##  2 NA        GBIF:21… Tetranyc… <chr>   RO:0002444    parasite of     NCBI:2711 
##  3 NA        GBIF:21… Tetranyc… <chr>   RO:0002444    parasite of     NCBI:3899 
##  4 NA        GBIF:21… Tetranyc… <chr>   RO:0002444    parasite of     NCBI:3662 
##  5 NA        GBIF:21… Tetranyc… <chr>   RO:0002444    parasite of     NCBI:13546
##  6 NA        GBIF:21… Tetranyc… <chr>   RO:0002444    parasite of     NCBI:1752…
##  7 NA        GBIF:21… Tetranyc… <chr>   RO:0002444    parasite of     NCBI:32247
##  8 NA        GBIF:21… Tetranyc… <chr>   RO:0002444    parasite of     NCBI:3654 
##  9 NA        GBIF:21… Tetranyc… <chr>   RO:0002444    parasite of     NCBI:3659 
## 10 NA        GBIF:21… Tetranyc… <chr>   RO:0002444    parasite of     NCBI:1015…
## # ℹ 215 more rows
## # ℹ 4 more variables: resourceName <chr>, reference <list>, source <chr>,
## #   inferred <chr>

# Example for retrieving interactions information based on scientific name
interactions_info <- get.interactions(sciName = c("Tetranychus urticae", "Acrobeles"), endpoint = endpoint_url)

# Display the data frame
print(interactions_info)

## # A tibble: 225 × 11
##    queryName  queryId matchName matchId interactionId interactionName resourceId
##    <chr>      <lgl>   <chr>     <list>  <chr>         <chr>           <chr>     
##  1 Tetranych… NA      Tetranyc… <chr>   RO:0002444    parasite of     GBIF:2874…
##  2 Tetranych… NA      Tetranyc… <chr>   RO:0002444    parasite of     NCBI:2711 
##  3 Tetranych… NA      Tetranyc… <chr>   RO:0002444    parasite of     NCBI:3899 
##  4 Tetranych… NA      Tetranyc… <chr>   RO:0002444    parasite of     NCBI:3662 
##  5 Tetranych… NA      Tetranyc… <chr>   RO:0002444    parasite of     NCBI:13546
##  6 Tetranych… NA      Tetranyc… <chr>   RO:0002444    parasite of     NCBI:1752…
##  7 Tetranych… NA      Tetranyc… <chr>   RO:0002444    parasite of     NCBI:32247
##  8 Tetranych… NA      Tetranyc… <chr>   RO:0002444    parasite of     NCBI:3654 
##  9 Tetranych… NA      Tetranyc… <chr>   RO:0002444    parasite of     NCBI:3659 
## 10 Tetranych… NA      Tetranyc… <chr>   RO:0002444    parasite of     NCBI:1015…
## # ℹ 215 more rows
## # ℹ 4 more variables: resourceName <chr>, reference <list>, source <chr>,
## #   inferred <chr>
…
# Display the data frame
print(guilds_info)

## # A tibble: 24 × 9
##    queryName queryId      matchName   matchId guildId guildName reference source
##    <lgl>     <chr>        <chr>       <list>  <chr>   <chr>     <list>    <chr> 
##  1 NA        GBIF:2130185 Tetranychu… <chr>   ECOCOR… heterotr… <lgl [1]> http:…
##  2 NA        GBIF:2130185 Tetranychu… <chr>   ECOCOR… symbiotr… <lgl [1]> http:…
##  3 NA        GBIF:2130185 Tetranychu… <chr>   ECOCOR… parasite  <lgl [1]> http:…
##  4 NA        GBIF:2130185 Tetranychu… <chr>   SFWO:0… plant pa… <lgl [1]> http:…
##  5 NA        GBIF:2130185 Tetranychu… <chr>   SFWO:0… zooparas… <lgl [1]> http:…
##  6 NA        GBIF:2130185 Tetranychu… <chr>   ECOCOR… heterotr… <lgl [1]> http:…
##  7 NA        GBIF:2130185 Tetranychu… <chr>   ECOCOR… herbivore <lgl [1]> http:…
##  8 NA        GBIF:2130185 Tetranychu… <chr>   ECOCOR… carnivore <lgl [1]> http:…
##  9 NA        GBIF:2130185 Tetranychu… <chr>   ECOCOR… predator  <lgl [1]> http:…
## 10 NA        GBIF:2130185 Tetranychu… <chr>   ECOCOR… insectiv… <lgl [1]> http:…
## # ℹ 14 more rows
## # ℹ 1 more variable: inferred <chr>
…
# Display the data frame
print(guilds_info)

## # A tibble: 24 × 9
##    queryName        queryId matchName matchId guildId guildName reference source
##    <chr>            <lgl>   <chr>     <list>  <chr>   <chr>     <list>    <chr> 
##  1 Tetranychus urt… NA      Tetranyc… <chr>   ECOCOR… heterotr… <lgl [1]> http:…
##  2 Tetranychus urt… NA      Tetranyc… <chr>   ECOCOR… symbiotr… <lgl [1]> http:…
##  3 Tetranychus urt… NA      Tetranyc… <chr>   ECOCOR… parasite  <lgl [1]> http:…
##  4 Tetranychus urt… NA      Tetranyc… <chr>   SFWO:0… plant pa… <lgl [1]> http:…
##  5 Tetranychus urt… NA      Tetranyc… <chr>   SFWO:0… zooparas… <lgl [1]> http:…
##  6 Tetranychus urt… NA      Tetranyc… <chr>   ECOCOR… heterotr… <lgl [1]> http:…
##  7 Tetranychus urt… NA      Tetranyc… <chr>   ECOCOR… herbivore <lgl [1]> http:…
##  8 Tetranychus urt… NA      Tetranyc… <chr>   ECOCOR… carnivore <lgl [1]> http:…
##  9 Tetranychus urt… NA      Tetranyc… <chr>   ECOCOR… predator  <lgl [1]> http:…
## 10 Tetranychus urt… NA      Tetranyc… <chr>   ECOCOR… insectiv… <lgl [1]> http:…
## # ℹ 14 more rows
## # ℹ 1 more variable: inferred <chr>

Retrieve Trophic Groups Information

Use the get.trophic.groups function to retrieve information about
trophic groups based on Taxonomy ID or scientific name:

# Example for retrieving trophic groups information based on Taxonomy ID
groups_info <- get.trophic.groups(taxid = c("GBIF:2130185", "NCBI:55786"), endpoint = endpoint_url)

# Display the data frame
print(groups_info)

## # A tibble: 21 × 9
##    queryName queryId matchName matchId trophicGroupId trophicGroupName reference
##    <lgl>     <chr>   <chr>     <list>  <chr>          <chr>            <list>   
##  1 NA        GBIF:2… Tetranyc… <chr>   SFWO:0000294   Acari.all        <lgl [1]>
##  2 NA        GBIF:2… Tetranyc… <chr>   SFWO:0000293   Prostigmata.all  <lgl [1]>
##  3 NA        GBIF:2… Tetranyc… <chr>   SFWO:0000560   Trombidiformes.… <lgl [1]>
##  4 NA        GBIF:2… Tetranyc… <chr>   SFWO:0000564   Trombidiformes.… <lgl [1]>
##  5 NA        GBIF:2… Tetranyc… <chr>   SFWO:0000294   Acari.all        <lgl [1]>
##  6 NA        GBIF:2… Tetranyc… <chr>   SFWO:0000293   Prostigmata.all  <lgl [1]>
##  7 NA        GBIF:2… Tetranyc… <chr>   SFWO:0000560   Trombidiformes.… <lgl [1]>
##  8 NA        GBIF:2… Tetranyc… <chr>   SFWO:0000294   Acari.all        <lgl [1]>
##  9 NA        GBIF:2… Tetranyc… <chr>   SFWO:0000293   Prostigmata.all  <lgl [1]>
## 10 NA        GBIF:2… Tetranyc… <chr>   SFWO:0000560   Trombidiformes.… <lgl [1]>
## # ℹ 11 more rows
## # ℹ 2 more variables: source <chr>, inferred <chr>

# Example for retrieving trophic groups information based on scientific name
groups_info <- get.trophic.groups(sciName = c("Tetranychus urticae", "Acrobeles"), endpoint = endpoint_url)

# Display the data frame
print(groups_info)

## # A tibble: 21 × 9
##    queryName queryId matchName matchId trophicGroupId trophicGroupName reference
##    <chr>     <lgl>   <chr>     <list>  <chr>          <chr>            <list>   
##  1 Tetranyc… NA      Tetranyc… <chr>   SFWO:0000294   Acari.all        <lgl [1]>
##  2 Tetranyc… NA      Tetranyc… <chr>   SFWO:0000293   Prostigmata.all  <lgl [1]>
##  3 Tetranyc… NA      Tetranyc… <chr>   SFWO:0000560   Trombidiformes.… <lgl [1]>
##  4 Tetranyc… NA      Tetranyc… <chr>   SFWO:0000564   Trombidiformes.… <lgl [1]>
##  5 Tetranyc… NA      Tetranyc… <chr>   SFWO:0000294   Acari.all        <lgl [1]>
##  6 Tetranyc… NA      Tetranyc… <chr>   SFWO:0000293   Prostigmata.all  <lgl [1]>
##  7 Tetranyc… NA      Tetranyc… <chr>   SFWO:0000560   Trombidiformes.… <lgl [1]>
##  8 Tetranyc… NA      Tetranyc… <chr>   SFWO:0000294   Acari.all        <lgl [1]>
##  9 Tetranyc… NA      Tetranyc… <chr>   SFWO:0000293   Prostigmata.all  <lgl [1]>
## 10 Tetranyc… NA      Tetranyc… <chr>   SFWO:0000560   Trombidiformes.… <lgl [1]>
## # ℹ 11 more rows
## # ℹ 2 more variables: source <chr>, inferred <chr>
…
